<svg
   xmlns="http://www.w3.org/2000/svg"
   width="24"
   height="24"
   viewBox="0 0 24 24"
    fill="none">
  <path
     d="M3.99991 3.99998H19.9999C21.0999 3.99998 21.9999 4.89998 21.9999 5.99998V18C21.9999 19.1 21.0999 20 19.9999 20H3.99991C2.89991 20 1.99991 19.1 1.99991 18V5.99998C1.99991 4.89998 2.89991 3.99998 3.99991 3.99998Z"
     stroke-linejoin="round"
     stroke-linecap="round"
     stroke="#397DFF" />
  <path
     d="M21.9999 6L11.9999 13L1.99991 6"
     stroke-linejoin="round"
     stroke-linecap="round"
     stroke="#397DFF" />
</svg>
