<svg
   xmlns="http://www.w3.org/2000/svg"
   width="24"
   height="24"
   viewBox="0 0 24 24"
   fill="none">
  <path
     d="m 21.888126,16.991873 v 3 c 0.0011,0.2785 -0.0559,0.5542 -0.1675,0.8093 -0.1116,0.2552 -0.2752,0.4843 -0.4804,0.6726 -0.2053,0.1882 -0.4475,0.3316 -0.7114,0.4208 -0.2638,0.0892 -0.5433,0.1224 -0.8207,0.0973 -3.0772,-0.3344 -6.033,-1.3859 -8.63,-3.07 -2.4161801,-1.5353 -4.4646701,-3.5838 -6.0000101,-6 -1.69002,-2.60881 -2.74175,-5.5790192 -3.07,-8.6700092 -0.02499,-0.27653 0.00788,-0.55524 0.0965,-0.81838 0.08863,-0.26313 0.23107,-0.50493 0.41827,-0.71 0.1872,-0.20507 0.41504,-0.36891 0.66903,-0.4811 0.25398,-0.11219 0.52854,-0.17026 0.8062,-0.17052 h 3 c 0.48531,-0.00478 0.9558,0.16708 1.32377,0.48353 0.36797,0.31646 0.60831,0.75592 0.67623,1.23647 0.12663,0.96007 0.36145,1.90273 0.7000001,2.81 0.13455,0.35792 0.16367,0.74691 0.08391,1.12088 -0.07975,0.37397 -0.26504,0.71723 -0.5339101,0.98912 l -1.27,1.2699996 c 1.42356,2.5035096 3.4964101,4.5764096 6.0000101,6.0000096 l 1.27,-1.27 c 0.2719,-0.2689 0.6151,-0.4542 0.9891,-0.5339 0.374,-0.0798 0.763,-0.0507 1.1209,0.0839 0.9073,0.3385 1.8499,0.5734 2.81,0.7 0.4858,0.0685 0.9294,0.3132 1.2465,0.6875 0.3172,0.3743 0.4857,0.8521 0.4735,1.3425 z"
     style="stroke:#397dff;stroke-linecap:round;stroke-linejoin:round" />
</svg>
