<svg
   xmlns="http://www.w3.org/2000/svg"
   width="24"
   height="24"
   viewBox="0 0 24 24">
  <path
     d="m 13.71429,23 h -3.42858 c -0.8,0 -1.71428,-0.6857 -1.71428,-2.0571 v -2.4 C 8.57143,17.4 8,16.3714 7.08571,15.5714 5.02857,13.9714 4,11.6857 4,9.17143 4.114286,4.82856 7.65714,1.399986 11.88571,1.2857 c 2.17139,0 4.22859,0.800001 5.71429,2.28572 1.4857,1.48571 2.4,3.54286 2.4,5.71429 0,2.39999 -1.0286,4.68569 -2.9714,6.17149 -1.0286,0.8 -1.6,2.0571 -1.6,3.2 v 2.6285 C 15.4286,22.2 14.6286,23 13.71429,23 Z M 12,2.42856 c -3.65714,0 -6.74286,3.08572 -6.85714,6.74287 0,2.17147 0.91428,4.22857 2.62857,5.48577 1.25714,1.0285 1.94286,2.4 1.94286,3.8857 v 2.4 c 0,0.2285 0,0.9143 0.57142,0.9143 h 3.42858 c 0.34281,0 0.57141,-0.2286 0.57141,-0.5715 v -2.6285 c 0,-1.4858 0.8,-3.0858 2.0572,-4.1143 1.6,-1.2572 2.5142,-3.2 2.5142,-5.25719 C 18.8571,7.45714 18.1714,5.74285 16.8,4.37142 15.5429,3.11427 13.82857,2.42856 12,2.42856 Z"
      />
  <path
     d="M 14.206435,19.5714 H 9.7935214 c -0.2647783,0 -0.4412945,-0.2285 -0.4412945,-0.5714 0,-0.3428 0.1765162,-0.5714 0.4412945,-0.5714 h 4.4129136 c 0.264809,0 0.441349,0.2286 0.441349,0.5714 0,0.3429 -0.17654,0.5714 -0.441349,0.5714 z"
      />
</svg>
